<?xml version="1.0" encoding="UTF-8"?><!DOCTYPE svg PUBLIC "-//W3C//DTD SVG 1.1//EN" "http://www.w3.org/Graphics/SVG/1.1/DTD/svg11.dtd"><svg xmlns="http://www.w3.org/2000/svg" xmlns:xlink="http://www.w3.org/1999/xlink"><symbol id="arrow-left-small" viewBox="0 0 7.9 14">
<style type="text/css">
	.st0{fill:#020101;}
</style>
<polygon class="st0" points="7.9,1 6.8,0 0.5,6.5 0,7 6.8,14 7.9,13 2.1,7 "/>
</symbol><symbol id="arrow-left" viewBox="0 0 18 15">
<style type="text/css">
	.st0{fill:none;stroke:#FFFFFF;stroke-width:1.5;}
</style>
<path class="st0" d="M8.4,1L2.1,7.5 M2.1,7.5L8.4,14 M2.1,7.5h16"/>
</symbol><symbol id="arrow-right-small" viewBox="0 0 7.9 14">
<style type="text/css">
	.st0{fill:#020101;}
</style>
<polygon class="st0" points="0,13 1.1,14 7.4,7.6 7.9,7 1.1,0 0,1 5.8,7 "/>
</symbol><symbol id="arrow-right" viewBox="0 0 18 15">
<g>
	<path d="M10.7,14L17,7.5L10.7,1"/>
	<path d="M1,7.5"/>
	<line x1="17" y1="7.5" x2="1" y2="7.5"/>
</g>
</symbol><symbol id="arrow" viewBox="0 0 18 15">
<path d="M9.66667 14L16 7.5M16 7.5L9.66667 1M16 7.5L-2.84124e-07 7.5" stroke="white" stroke-width="1.5"/>
</symbol><symbol id="badge-text" viewBox="0 0 399 398">
<style type="text/css">
	.st0{fill-rule:evenodd;clip-rule:evenodd;fill:url(#SVGID_1_);fill-opacity:0.35;}
</style>
<linearGradient id="SVGID_1_" gradientUnits="userSpaceOnUse" x1="41.4592" y1="359.852" x2="400.4592" y2="-6.148" gradientTransform="matrix(1 0 0 -1 0 398)">
	<stop offset="0" style="stop-color:#CCE6FD"/>
	<stop offset="0.5156" style="stop-color:#FFB8D1"/>
	<stop offset="0.9847" style="stop-color:#5F00FC"/>
</linearGradient>
<path class="st0" d="M199.1,1C89.7,1,1,89.6,1,198.9s88.7,197.9,198.1,197.9c109.4,0,198.1-88.6,198.1-197.9S308.6,1,199.1,1z
	 M0,198.9C0,89.1,89.2,0,199.1,0c110,0,199.1,89.1,199.1,198.9c0,109.9-89.2,198.9-199.1,198.9C89.2,397.8,0,308.8,0,198.9z
	 M205,30.9h3.2l-3.8-5.8v0c2.6-0.4,4.1-2.1,4.1-4.6c0-2.9-2-4.7-5.3-4.7h-7.8l0,15.3h2.8v-5.8h3.2L205,30.9z M202.9,18.1
	c1.9,0,2.8,0.7,2.8,2.2c0,1.5-1,2.3-2.8,2.3h-4.8v-4.5H202.9z M183.2,16.1c3.6-0.3,6.5,1.5,7.5,4.5l-2.6,0.9c-0.3-1-1-1.8-1.8-2.3
	c-0.9-0.5-1.9-0.8-2.9-0.6c-2.9,0.3-4.7,2.7-4.4,5.9c0.3,3.2,2.6,5.2,5.5,4.9c2.7-0.3,4.2-1.8,4.1-3.9l-4.2,0.4l-0.2-2.3l6.9-0.7
	l0.2,1.7c0.4,4-2.1,6.8-6.5,7.2c-4.4,0.4-8.2-2.6-8.5-7.2C175.7,20.3,178.8,16.5,183.2,16.1z M155.7,36.9l0.5-2.8l7.9-1.9l1.7,2.3
	l3-0.7l-10.3-13.2l-2.6,0.6l-3.1,16.4L155.7,36.9z M157.9,24L157.9,24l4.6,6l-5.8,1.4L157.9,24z M132.6,38.9c1.3,2.1,3,2.6,5.5,1.7
	c2-0.8,2.9-2,2.4-3.1c-0.5-1.2-1.6-1.4-5.1-0.8c-4.3,0.7-6.3,0.1-7.1-2c-0.9-2.3,0.6-4.9,3.9-6.2c3.2-1.2,6.3-0.5,7.9,1.9l-2.3,1.6
	c-1.1-1.6-2.8-2-4.7-1.2c-1.6,0.6-2.5,1.8-2.1,2.9c0.3,0.9,1.3,1,4.7,0.5c4.3-0.7,6.5-0.1,7.5,2.3c1,2.6-0.6,5.1-4.2,6.5
	c-3.8,1.5-7,0.6-8.8-2.4L132.6,38.9z M119.3,51.6l-0.2-2.9l7.2-3.7l2.2,1.8l2.7-1.4L118.2,35l-2.4,1.2l0.8,16.7L119.3,51.6z
	 M118.4,38.5L118.4,38.5l5.8,4.8l-5.3,2.7L118.4,38.5z M92.1,50.6l8.5,8h0l-2.8-11.7l2.2-1.4l9.6,7.2l0,0l-4-10.9l2.4-1.6l5.3,14.8
	l-2.5,1.7l-9.7-7l0,0l2.6,11.7l-2.5,1.7L89.7,52.2L92.1,50.6z M84.9,63.3l2,2.4l-2.4,2.1l-2.1-2.4L84.9,63.3z M224.6,17l-0.2,2.5
	l-8.5-0.8l-0.4,3.8l7.7,0.7l-0.2,2.4l-7.8-0.7l-0.4,4.1l8.5,0.8l-0.2,2.5l-11.3-1.1l1.5-15.2L224.6,17z M228.1,33l1.6-2.4l8,1.5
	l0.6,2.8l3,0.6l-3.9-16.3l-2.7-0.5l-9.7,13.7L228.1,33z M235.5,22.2L235.5,22.2l1.6,7.4l-5.9-1.1L235.5,22.2z M243.8,23.1l0.7-2.4
	l13.4,3.8l-0.7,2.4l-5.3-1.5l-3.5,12.3l-2.7-0.8l3.5-12.3L243.8,23.1z M269.4,28.7l-3-1.3l2.3,11l-2.4,5.6l2.6,1.1l2.4-5.6l9.5-5.9
	l-3-1.3l-6.9,4.5h0L269.4,28.7z M294.3,40.8l-1.2,2.2l-7.5-4.1l-1.8,3.4l6.8,3.7l-1.1,2.1l-6.8-3.7l-2,3.6l7.5,4.1l-1.2,2.2l-10-5.4
	l7.3-13.4L294.3,40.8z M291.4,56.8l2.4-1.6l6.7,4.5l-0.5,2.8l2.5,1.7l2.8-16.5l-2.2-1.5l-14.2,8.8L291.4,56.8z M302.4,49.8
	L302.4,49.8l-1.4,7.4l-5-3.3L302.4,49.8z M314.5,74.2l-2.5-2l0.8-6.8l-2.5-2l-3.7,4.4l-2.2-1.8l9.7-11.7l6,5c2.6,2.1,2.9,4.8,1.1,7
	c-1.6,2-3.9,2.3-6.1,1l0,0L314.5,74.2z M319.3,64.5c0.9-1.1,0.7-2.3-0.7-3.5l-3.6-3l-2.9,3.5l3.7,3
	C317.1,65.6,318.3,65.6,319.3,64.5z M339.3,81.2l1.8-1.7l-7.8-8.4l-11.2,10.4l1.9,2.1l4.4-4l5.5,5.9l1.8-1.6l-5.5-5.9l3.3-3
	L339.3,81.2z M348.7,88.5c1,1.3,1.5,2.8,1.6,4.3c0.1,1.6-0.3,3.1-1.1,4.5s-2,2.5-3.4,3.1c-1.4,0.7-3,0.9-4.6,0.7
	c-1.6-0.2-3-0.9-4.2-1.9c-1.2-1-2-2.4-2.4-3.9s-0.3-3.1,0.2-4.6c0.5-1.5,1.5-2.8,2.7-3.7c0.8-0.7,1.8-1.2,2.8-1.5
	c1-0.3,2.1-0.4,3.1-0.2s2.1,0.5,3,1C347.3,86.9,348.1,87.7,348.7,88.5z M346.7,90c-1.8-2.4-4.9-2.7-7.5-0.8c-2.6,2-3.1,5-1.2,7.4
	c1.8,2.4,4.8,2.7,7.4,0.8C348.1,95.5,348.6,92.5,346.7,90L346.7,90z M348,115.5l1.7,2.7l3-6.3h0c1.7,2,3.9,2.4,6.1,1.1
	c2.5-1.5,3-4.2,1.3-7l-4.1-6.7l-13,7.9l1.5,2.4l4.9-3l1.7,2.7L348,115.5z M357.8,107c1,1.6,0.8,2.8-0.4,3.6
	c-1.3,0.8-2.4,0.4-3.4-1.2l-2.5-4.1l3.8-2.3L357.8,107z M368.5,121.4l1.1,2.6l-8.6,3.7c-2.4,1-3,2.7-1.9,5.1c1.1,2.5,2.6,3.2,5,2.1
	l8.6-3.7l1.1,2.6l-8.7,3.7c-3.8,1.6-6.6,0.2-8.3-3.8c-1.7-4-0.8-7,3-8.7L368.5,121.4z M365.1,149.1c-0.8-2.6-0.2-4.2,2-5.4l-1.3-2.5
	c-3.2,1.6-4.3,4.7-3,8.6c1.1,3.6,3.6,5.4,6.2,4.6c2.5-0.8,3.3-2.9,2.9-7.3c-0.3-3.4-0.1-4.4,0.8-4.7c1.1-0.3,2.2,0.6,2.7,2.3
	c0.6,2,0.1,3.6-1.5,4.6l1.4,2.4c2.5-1.4,3.4-4.5,2.4-7.7c-1.1-3.3-3.6-5-5.9-4.3c-2.2,0.7-2.9,2.6-2.5,7c0.3,3.5,0.1,4.6-1.2,5
	C366.9,152.1,365.8,151.1,365.1,149.1z M378.7,173.7l-3.1,0.5l-0.5-3.2l3.1-0.5L378.7,173.7z M374.6,189.6l11.2-3.1l-0.1-2.9
	l-15.1,4.2l0.1,3l11.4,3.9v0l-11.1,4.6l0.1,3l15.4,3.2l-0.1-2.9l-11.4-2.3v0l11.2-4.5l-0.1-2.6L374.6,189.6L374.6,189.6z
	 M373.4,210.4l-2.5-1.3l0.2-3l14.7,8.1l-0.2,2.7l-15.8,5.7l0.2-3l2.7-0.9L373.4,210.4z M382.4,215.2L382.4,215.2l-6.7-3.5l-0.5,5.9
	L382.4,215.2z M370.4,230.9c0.5-2.6,1.8-3.8,4.3-3.8l0-2.8c-3.5-0.1-5.9,2.2-6.6,6.2c-0.6,3.7,0.6,6.4,3.4,6.9
	c2.6,0.4,4.2-1.1,5.9-5.2c1.3-3.2,1.9-3.9,2.9-3.8c1.1,0.2,1.7,1.6,1.3,3.3c-0.4,2.1-1.6,3.3-3.5,3.4l0.2,2.8
	c2.9-0.1,5.1-2.4,5.7-5.8c0.6-3.4-0.8-6.1-3.3-6.5c-2.3-0.4-3.8,1-5.4,5c-1.4,3.3-2.1,4.1-3.3,3.9C370.5,234.4,370,233,370.4,230.9z
	 M366.6,249.7l-2.2-1.9l0.9-2.9l12.4,11.2l-0.8,2.6l-16.6,1.9l0.9-2.9l2.9-0.3L366.6,249.7z M374.2,256.5L374.2,256.5l-5.7-5
	l-1.8,5.7L374.2,256.5z M360,286.2c3.1,0.7,6.2-0.8,7.7-4c2-4,0.4-8.6-3.7-10.5c-4.1-2.1-8.7-0.5-10.6,3.5c-1.9,4-0.8,7.6,2.7,9.3
	l1.5,0.7l3-6.2l-2-1l-1.8,3.7c-1.8-0.9-2.3-3.1-1.2-5.5c1.3-2.6,4.2-3.5,7.1-2.1s4,4.3,2.7,6.9c-0.4,0.9-1.1,1.7-2,2.1
	c-0.9,0.4-1.9,0.6-2.9,0.3L360,286.2z M342.1,295.7l1.7-2.7l6.9-0.1l1.7-2.7l-4.9-3l1.5-2.4l13,8l-4.1,6.7c-1.7,2.8-4.4,3.6-6.8,2.1
	c-2.2-1.3-2.8-3.5-1.8-5.9h0L342.1,295.7z M352.4,299.1c1.3,0.8,2.4,0.4,3.4-1.2l2.5-4l-3.8-2.4l-2.5,4.1
	C351,297.1,351.1,298.3,352.4,299.1z M343.4,315.4l2,1.5l6.8-9.1l-12.2-9.2l-6.8,9l2,1.5l5.1-6.8l3.3,2.5l-4.7,6.2l1.9,1.4l4.7-6.2
	l3,2.3L343.4,315.4z M331.1,314.2l-1.2-2.6l2.1-2.3l6.6,15.4l-1.8,2l-15.9-5.2l2.1-2.3l2.7,0.9L331.1,314.2z M335.2,323.5
	L335.2,323.5l-3.1-6.9l-4,4.4L335.2,323.5z M331.9,331.9l-1.7-1.8l-4,3.8l-8.7-9.3l-2.1,1.9l8.7,9.3l-4.1,3.8l1.7,1.8L331.9,331.9z
	 M314.8,347.1l-2.7,1.9l-7.7-2.9h0l0.2,8.2l-2.7,1.9l-0.1-11.2l-3.5-5l2.3-1.6l3.5,5L314.8,347.1z M287.5,361.8l1.3,2.1l9.8-5.7
	l-7.7-13.2l-9.8,5.7l1.3,2.2l7.4-4.3l2.1,3.5l-6.7,3.9l1.2,2.1l6.7-3.9l1.9,3.3L287.5,361.8z M276.6,355.9l-0.1-2.9l2.8-1.3
	l0.1,16.7l-2.5,1.1l-12.6-11l2.8-1.3l2.1,1.9L276.6,355.9z M276.8,366.1L276.8,366.1l-0.2-7.5l-5.4,2.5L276.8,366.1z M252.7,362.6
	l-3,1l5.5,4.3v0c-2.3,1.2-3.2,3.3-2.4,5.7c0.9,2.7,3.5,3.8,6.6,2.7l7.4-2.5l-4.9-14.4l-2.7,0.9l1.9,5.5l-3,1L252.7,362.6z
	 M258.9,374c-1.8,0.6-2.9,0.2-3.4-1.2c-0.5-1.4,0.2-2.5,1.9-3.1l4.5-1.6l1.5,4.2L258.9,374z M231.2,383.5l-0.5-2.4l8.4-1.7l-0.9-4.3
	l-7.9,1.6l-0.5-2.4l7.9-1.6l-1.2-5.8l2.8-0.6l3,15L231.2,383.5z M215,384.4c1.4,0.7,3,1.1,4.5,0.9c1.1-0.1,2.1-0.3,3-0.8
	c0.9-0.5,1.8-1.2,2.4-2c0.7-0.8,1.2-1.8,1.4-2.8c0.3-1,0.4-2.1,0.2-3.1c-0.2-1.6-0.8-3-1.8-4.3c-1-1.2-2.3-2.1-3.8-2.6
	c-1.5-0.5-3.1-0.5-4.6,0c-1.5,0.5-2.8,1.4-3.8,2.6c-1,1.2-1.6,2.7-1.8,4.3c-0.2,1.6,0.2,3.1,0.9,4.5
	C212.5,382.5,213.6,383.6,215,384.4z M223.8,376.9c0.3,3.2-1.5,5.7-4.6,6c-3,0.3-5.3-1.7-5.6-4.9c-0.3-3.2,1.5-5.6,4.5-5.9
	C221.2,371.7,223.5,373.6,223.8,376.9z M193.7,370.7h3.2l3.7,5.8h3.2v-5.8h2.8v15.3h-7.8c-3.3,0-5.3-1.8-5.3-4.7
	c0-2.5,1.5-4.2,4.1-4.6v0L193.7,370.7z M196.2,381.2c0,1.5,0.9,2.2,2.8,2.2h4.7v-4.5H199C197.2,378.9,196.2,379.7,196.2,381.2z
	 M178.4,384.6l2.8,0.4l1.3-9.3c0.6-4.1-1.5-6.5-5.8-7.1c-4.3-0.6-7,1.1-7.6,5.2l-1.3,9.3l2.8,0.4l1.3-9.2c0.4-2.6,1.8-3.5,4.4-3.2
	c2.7,0.4,3.8,1.7,3.4,4.3L178.4,384.6z M162.8,372.2c0.2-2.5-0.9-3.9-3.6-4.6c-2.1-0.5-3.5-0.1-3.8,1.2s0.5,2,3.7,3.6
	c3.9,1.9,5.2,3.5,4.7,5.7c-0.6,2.4-3.4,3.7-6.8,2.8c-3.3-0.8-5.4-3.2-5.4-6.1l2.8,0c0,1.9,1.1,3.2,3.2,3.7c1.7,0.4,3.1,0,3.4-1.1
	c0.2-0.9-0.5-1.6-3.6-3.1c-3.9-1.9-5.4-3.7-4.8-6.2c0.7-2.7,3.4-3.8,7.1-2.9c4,1,6.1,3.5,5.8,7L162.8,372.2z M139,366.2l-1.1,3
	l3,1.1l1.1-2.9L139,366.2z M123.3,369.1l2.8-11.3h0l-8.8,8.2l-2.3-1.2l1.6-11.9h0l-7.6,8.8l-2.6-1.3l10.3-11.9l2.7,1.4l-1.4,11.9h0
	l8.9-8l2.7,1.4l-3.7,15.2L123.3,369.1z M110.9,345l-2.4,1.6l-6.7-4.5l0.5-2.8l-2.5-1.7l-2.7,16.5l2.3,1.5l14.2-8.9L110.9,345z
	 M99.9,352.1L99.9,352.1l1.3-7.4l5,3.3L99.9,352.1z M93.3,339.6c1.2-2.2,0.8-3.9-1.3-5.6c-1.6-1.3-3.1-1.6-3.9-0.5
	c-0.8,1-0.4,2,1.8,4.8c2.7,3.4,3.2,5.4,1.8,7.2c-1.6,1.9-4.6,1.9-7.3-0.3s-3.6-5.2-2.3-7.8l2.5,1.2c-0.8,1.7-0.3,3.4,1.3,4.7
	c1.4,1.1,2.9,1.3,3.6,0.4c0.6-0.7,0.2-1.6-1.9-4.3c-2.7-3.4-3.3-5.7-1.6-7.7c1.7-2.1,4.7-2,7.7,0.4c3.2,2.6,4,5.8,2.2,8.8
	L93.3,339.6z M80.1,320.5l-2.7,1l-5.5-5.9L73,313l-2.1-2.2l-6.4,15.4l1.8,2l15.9-5.4L80.1,320.5z M67.8,325L67.8,325l3-6.9l4.1,4.4
	L67.8,325z M48.5,306.8c-2.1-2.9-1.9-6.4,0.2-8.7l2.1,1.8c-0.7,0.7-1.1,1.7-1.1,2.7c0,1,0.3,2,0.9,2.8c1.7,2.4,4.7,2.8,7.3,0.9
	c2.7-1.9,3.3-4.8,1.6-7.2c-1.6-2.2-3.6-2.7-5.4-1.6l2.4,3.4l-1.9,1.3l-4-5.7l1.4-1c3.3-2.3,6.9-1.5,9.5,2.1c2.6,3.6,1.7,8.4-2,11
	C55.8,311.3,51,310.5,48.5,306.8z M50.6,280.6l-1.6-2.8l-3.2,6.2h0c-1.6-2.1-3.8-2.6-6.1-1.3c-2.6,1.4-3.1,4.1-1.5,7l3.8,6.8
	l13.3-7.5l-1.4-2.5l-5,2.8l-1.6-2.8L50.6,280.6z M40.5,288.7c-0.9-1.7-0.7-2.8,0.6-3.5h0c1.3-0.7,2.4-0.3,3.3,1.3l2.3,4.1l-3.9,2.2
	L40.5,288.7z M28.9,270.4l2.3-1l3.5,7.8l3.5-1.6l-3.1-7.1l2.2-1l3.1,7.1l3.7-1.7l-3.4-7.8l2.3-1l4.6,10.4l-14,6.2L28.9,270.4z
	 M41.1,259.5l-2.9-0.2l-2.6-7.7l2.1-1.9l-1-2.9l-12.3,11.3l0.9,2.6l16.7,1.7L41.1,259.5z M28.1,258.4L28.1,258.4l5.6-5l1.9,5.7
	L28.1,258.4z M24.8,250.7l-2.4,0.6l-3.3-13.5l2.4-0.6l1.3,5.4l12.4-3l0.7,2.7l-12.4,3L24.8,250.7z M17.1,225.6l0.3,3.3l8.5-7.3
	l6.1-0.6l-0.3-2.8l-6.1,0.6l-9.8-5.5l0.3,3.3l7.2,3.9v0L17.1,225.6z M15.4,198.1l2.5,0l0.2,8.5l3.8-0.1l-0.2-7.8l2.4,0l0.1,7.8
	l4.1-0.1l-0.2-8.5l2.5,0l0.2,11.3l-15.3,0.3L15.4,198.1z M30.8,192.7l-2.5-1.3l0.6-8.1l2.7-1l0.2-3L16.1,185l-0.2,2.7l14.7,8
	L30.8,192.7z M19.2,186.7L19.2,186.7l7.1-2.5l-0.5,5.9L19.2,186.7z M34.6,164.1l-0.6,3.2l-6.3,2.6l-0.6,3.1l5.7,1l-0.5,2.8l-15-2.7
	l1.4-7.7c0.6-3.3,2.7-4.9,5.6-4.4c2.5,0.5,3.9,2.2,3.8,4.9h0L34.6,164.1z M23.8,164.7c-1.5-0.3-2.3,0.5-2.7,2.4l-0.8,4.7l4.4,0.8
	l0.8-4.7C25.8,166.1,25.2,165,23.8,164.7z M28.6,139.1l-2.4-0.8l-3.5,10.9l14.5,4.7l0.9-2.7l-5.6-1.8l2.5-7.7l-2.3-0.7l-2.5,7.7
	l-4.2-1.4L28.6,139.1z M30.4,127.3c0.6-1.4,1.7-2.7,3-3.5c1.3-0.9,2.9-1.3,4.4-1.3c1.6,0,3.1,0.5,4.4,1.4c1.3,0.9,2.3,2.2,2.9,3.6
	c0.6,1.5,0.7,3.1,0.4,4.6c-0.3,1.5-1.1,2.9-2.2,4c-1.1,1.1-2.6,1.8-4.1,2.1s-3.1,0.1-4.6-0.5c-1-0.4-1.9-1-2.6-1.7
	c-0.8-0.7-1.3-1.6-1.7-2.6c-0.4-1-0.6-2-0.5-3.1S29.9,128.2,30.4,127.3z M32.6,128.3c-1.2,2.8,0,5.6,3,6.9c3,1.3,5.8,0.2,7-2.5
	c1.2-2.8,0-5.6-3-6.9C36.7,124.4,33.8,125.5,32.6,128.3L32.6,128.3z M54.2,114.7l1.6-2.8l-7,0.4h0c0.9-2.5,0.2-4.6-2-5.8
	c-2.5-1.4-5.1-0.5-6.8,2.3l-3.8,6.8l13.3,7.5l1.4-2.4l-5-2.8l1.6-2.8L54.2,114.7z M42,110.3c0.9-1.7,2-2.1,3.3-1.4
	c1.3,0.7,1.5,1.9,0.6,3.5l-2.3,4.2l-3.9-2.2L42,110.3z M49.3,93.9l1.7-2.2l7.4,5.6c2.1,1.6,3.8,1.3,5.4-0.9c1.6-2.1,1.5-3.8-0.6-5.4
	l-7.4-5.6l1.7-2.2l7.5,5.7c3.3,2.5,3.5,5.6,0.8,9.1c-2.6,3.5-5.8,4.1-9,1.6L49.3,93.9z M75.1,83.3c-1.8,2-3.6,2.2-5.7,0.9l-1.5,2.4
	c2.9,2,6.2,1.4,9-1.6c2.6-2.8,3-5.7,0.9-7.6c-1.9-1.8-4.2-1.4-7.8,1.1c-2.8,2-3.7,2.3-4.5,1.6c-0.8-0.8-0.5-2.2,0.7-3.5
	c1.4-1.5,3.1-1.9,4.8-1l1.4-2.4c-2.5-1.5-5.6-0.8-7.9,1.7c-2.4,2.6-2.6,5.6-0.8,7.3c1.7,1.6,3.7,1.2,7.3-1.3c2.9-2,4-2.3,4.9-1.5
	C76.9,80.3,76.6,81.7,75.1,83.3z M42,201.8c0-87.1,70.7-157.7,157.9-157.7c87.2,0,157.9,70.6,157.9,157.7s-70.7,157.7-157.9,157.7
	C112.7,359.5,42,288.9,42,201.8z M199.9,43.1C112.2,43.1,41,114.1,41,201.8c0,87.7,71.1,158.7,158.9,158.7
	c87.8,0,158.9-71.1,158.9-158.7C358.8,114.1,287.7,43.1,199.9,43.1z"/>
</symbol><symbol id="badge" viewBox="0 0 399 398">
<style type="text/css">
	.st0{fill-rule:evenodd;clip-rule:evenodd;fill:url(#SVGID_1_);fill-opacity:0.35;}
</style>
<linearGradient id="SVGID_1_" gradientUnits="userSpaceOnUse" x1="120.2879" y1="272.5198" x2="293.4424" y2="95.9891" gradientTransform="matrix(1 0 0 -1 0 398)">
	<stop offset="0" style="stop-color:#CCE6FD"/>
	<stop offset="0.5156" style="stop-color:#FFB8D1"/>
	<stop offset="0.9847" style="stop-color:#5F00FC"/>
</linearGradient>
<path class="st0" d="M138.8,217.8v14.5H82.2v-10.5c0-6,1.6-10.4,5-14.1c4.1-4.6,9.6-7.6,18.9-10.3c13.7-4.1,16.7-6.3,16.7-11.1
	c0-4.1-3.9-7-10.3-7c-8.3,0-14.1,4.8-15,12.7l-16.3-1.6c1.3-15.2,14-25.3,31.2-25.3c15.9,0,26.8,9.1,26.8,20.9
	c0,11.3-6.8,17.9-22.6,22.5c-9.1,2.7-12.6,4.2-14.6,5.8c-1.4,1-1.8,1.9-1.9,3.5H138.8z M208.5,199.6c0-20.1-13.1-34.4-32.1-34.4
	c-18.8-0.3-32.2,14.6-32,34.4c-0.2,19.9,13.2,34.7,32,34.5C195.4,234.1,208.5,219.7,208.5,199.6z M161.1,199.6
	c0-12.2,5.7-19.6,15.3-19.6v0c9.6,0,15.4,7.4,15.4,19.6c0,12.2-5.8,19.6-15.4,19.6S161.1,211.9,161.1,199.6z M213,195.1v-16.8
	l21.9-11.4h15.4v65.4h-16.6v-48L213,195.1z M262.9,216.6c3,10.7,12.6,17.4,26.5,17.4c18.8,0,29-12.4,29-36.4
	c0-20.4-11.1-32.3-30.3-32.3c-16.8,0-28.4,10-28.4,23.3c0,12.9,10.9,22.2,26.7,22.2c6.3,0,11.5-1.5,15.5-4.4
	c-0.7,9.2-5.3,13.9-12.5,13.9c-6.3,0-9.8-2.4-11.9-8.3L262.9,216.6z M288.5,178.9c7.8,0,12.9,4.1,12.9,9.7h0c0,6-5,9.6-12.9,9.6
	c-7.9,0-12.8-3.6-12.8-9.7C275.7,182.5,280.6,178.9,288.5,178.9z"/>
</symbol><symbol id="logo" viewBox="0 0 193 30">
<path d="M18.328 6.552C18.328 4.632 18.52 3.32 19.192 2.2H13.496C13.72 2.488 13.848 3.032 13.848 3.8C13.848 4.792 13.656 5.848 13.304 7L9.976 17.464L6.616 7C6.232 5.816 6.04 4.696 6.04 3.704C6.04 3 6.136 2.488 6.36 2.2H0.152C0.728 3.192 1.016 4.664 1.016 6.552V17.72C1.016 19.64 0.728 21.4 0.152 23H3.384C2.808 21.4 2.52 19.64 2.52 17.72V7.608L7.704 23H9.592L14.744 7.8V17.72C14.712 19.672 14.392 21.432 13.848 23H19.192C18.616 21.4 18.328 19.64 18.328 17.72V6.552ZM20.4398 2.904C20.4398 4.344 21.5278 5.464 23.0318 5.464C24.5678 5.464 25.6878 4.344 25.6878 2.904C25.6878 1.464 24.5678 0.311998 23.0318 0.311998C21.5278 0.311998 20.4398 1.464 20.4398 2.904ZM21.1438 18.52C21.1438 19.448 21.1118 20.216 21.0158 20.824C20.9198 21.4 20.7278 22.136 20.4078 23H25.8158C25.4958 22.136 25.3038 21.4 25.2078 20.824C25.1118 20.216 25.0798 19.448 25.0798 18.52V6.584C23.7678 7.224 22.1998 7.832 20.4078 8.376C21.0478 9.688 21.1438 11 21.1438 13.08V18.52ZM40.4213 23C39.7813 21.176 39.5573 19.736 39.5573 17.656V11.128C39.5573 8.184 38.2773 6.616 36.0693 6.616C34.2453 6.616 32.6133 7.608 31.5893 9.56C31.5573 8.632 31.2373 7.352 30.8853 6.552C29.8612 7.064 28.5173 7.672 26.8852 8.376C27.5252 9.688 27.6213 10.776 27.6213 12.92V18.328C27.6213 20.376 27.5252 21.432 26.8852 23H32.3253C31.6853 21.464 31.5893 20.408 31.5893 18.328V10.488C32.2933 9.656 33.0613 9.24 33.8612 9.24C35.0452 9.24 35.5893 9.944 35.5893 11.736V17.752C35.5893 20.024 35.7173 21.784 36.0052 23H40.4213ZM53.9447 23C53.5927 22.168 53.3368 21.4 53.2407 20.696C53.1447 19.96 53.0807 18.968 53.0807 17.688V12.952C53.0807 8.984 51.6407 6.616 47.5767 6.616C43.7047 6.616 41.5927 8.888 41.5927 11.864V12.728L45.8487 12.952C45.3687 11.896 45.1447 10.904 45.1447 9.976C45.1447 8.664 45.7527 7.928 46.8727 7.928C48.5687 7.928 49.0807 9.528 49.0807 11.928V13.112C49.0807 13.752 48.3447 14.232 45.7847 15.288C43.7047 16.152 42.5527 16.632 41.6247 17.784C41.1447 18.36 40.9207 19.064 40.9207 19.864C40.9207 21.88 42.3607 23.256 44.5367 23.256C46.3607 23.256 47.9927 22.36 49.1127 20.824C49.1767 21.688 49.3687 22.424 49.7207 23H53.9447ZM49.0807 20.056C48.4727 20.44 47.8007 20.632 47.1287 20.632C45.7207 20.632 44.9527 19.704 44.9527 18.264C44.9527 16.6 45.7527 15.896 48.0887 15.896C48.9527 15.896 49.0807 16.024 49.0807 16.696V20.056ZM76.2513 23C75.6753 21.432 75.3873 19.672 75.3873 17.656V11.128C75.3873 8.184 74.1393 6.616 71.8673 6.616C69.9792 6.616 68.3153 7.704 67.2913 9.784C66.9393 7.704 65.7233 6.616 63.8993 6.616C62.0753 6.616 60.4433 7.608 59.4193 9.56C59.3872 8.632 59.0673 7.352 58.7153 6.552C57.6912 7.064 56.3472 7.672 54.7152 8.376C55.3552 9.688 55.4512 10.776 55.4512 12.92V18.328C55.4512 20.376 55.3552 21.432 54.7152 23H60.1553C59.5153 21.464 59.4193 20.408 59.4193 18.328V10.488C60.1233 9.656 60.8913 9.24 61.6912 9.24C62.8752 9.24 63.4193 9.944 63.4193 11.736V23H68.2513C67.6753 21.368 67.3873 19.576 67.3873 17.656V11.128C67.3873 10.84 67.3873 10.648 67.3553 10.52C68.0913 9.656 68.8593 9.24 69.6912 9.24C70.8752 9.24 71.4193 9.944 71.4193 11.736V17.72C71.4193 20.024 71.5473 21.784 71.8353 23H76.2513ZM77.006 2.904C77.006 4.344 78.094 5.464 79.598 5.464C81.134 5.464 82.254 4.344 82.254 2.904C82.254 1.464 81.134 0.311998 79.598 0.311998C78.094 0.311998 77.006 1.464 77.006 2.904ZM77.71 18.52C77.71 19.448 77.678 20.216 77.582 20.824C77.486 21.4 77.294 22.136 76.974 23H82.382C82.062 22.136 81.87 21.4 81.774 20.824C81.678 20.216 81.646 19.448 81.646 18.52V6.584C80.334 7.224 78.766 7.832 76.974 8.376C77.614 9.688 77.71 11 77.71 13.08V18.52ZM99.0035 12.216C99.0035 5.24 94.9395 2.2 90.1395 2.2H83.5795C84.1555 3.704 84.4435 5.496 84.4435 7.544V17.656C84.4435 19.544 84.1555 21.336 83.5795 23H89.9155C95.0355 23 99.0035 19.192 99.0035 12.216ZM94.7475 13.016C94.7475 15.64 94.3635 17.752 93.5635 19.352C92.7955 20.92 91.4835 21.72 89.6275 21.72C89.2115 21.72 88.8915 21.72 88.6675 21.688C88.5395 20.568 88.4755 19.224 88.4755 17.656V7.544C88.4755 6.264 88.5075 4.92 88.5715 3.512H89.3395C91.0995 3.512 92.4435 4.376 93.3715 6.136C94.2995 7.896 94.7475 10.168 94.7475 13.016ZM112.591 12.632C112.591 9.144 110.703 6.584 107.087 6.584C102.639 6.584 100.207 10.36 100.207 15.128C100.207 20.024 103.023 23.416 106.991 23.416C110.287 23.416 112.175 21.144 112.495 18.968C111.439 19.608 110.511 19.928 109.135 19.928C105.903 19.928 104.463 18.2 104.175 14.968H112.591V12.632ZM108.559 12.664C108.559 13.848 108.431 14.008 107.407 14.008H104.111V13.304C104.111 9.752 104.975 7.992 106.479 7.992C107.855 7.992 108.559 9.56 108.559 12.664ZM116.442 9.656C116.442 8.888 117.018 8.408 117.914 8.408C119.802 8.408 121.882 9.976 123.162 12.376L123.706 7.224C122.906 6.872 121.434 6.616 120.122 6.616C115.994 6.616 113.498 8.92 113.498 11.672C113.498 13.592 114.65 14.648 116.826 15.96L119.45 17.432C121.21 18.424 121.85 19.16 121.85 20.184C121.85 21.112 121.21 21.656 120.314 21.656C118.714 21.656 117.21 20.248 115.77 17.432L112.954 19.704C114.074 21.848 116.282 23.384 118.874 23.384C121.85 23.384 124.346 21.176 124.346 18.2C124.346 16.408 123.386 14.968 121.498 13.848L119.642 12.76C117.242 11.352 116.442 10.68 116.442 9.656ZM125.104 2.904C125.104 4.344 126.192 5.464 127.696 5.464C129.232 5.464 130.352 4.344 130.352 2.904C130.352 1.464 129.232 0.311998 127.696 0.311998C126.192 0.311998 125.104 1.464 125.104 2.904ZM125.808 18.52C125.808 19.448 125.776 20.216 125.68 20.824C125.584 21.4 125.392 22.136 125.072 23H130.48C130.16 22.136 129.968 21.4 129.872 20.824C129.776 20.216 129.744 19.448 129.744 18.52V6.584C128.432 7.224 126.864 7.832 125.072 8.376C125.712 9.688 125.808 11 125.808 13.08V18.52ZM145.885 3.608C145.533 3.448 145.149 3.352 144.733 3.352C142.973 3.352 141.757 4.344 140.957 7.384C140.029 6.904 138.973 6.648 137.821 6.648C134.205 6.648 131.453 9.304 131.453 12.632C131.453 14.776 132.605 16.504 134.397 17.432C132.701 18.616 131.549 20.088 131.549 21.464C131.549 23.096 133.021 23.704 135.805 23.704H139.293C141.213 23.704 142.109 24.088 142.109 25.24C142.109 26.36 141.085 27.128 139.037 27.128C136.637 27.128 134.557 26.2 132.733 24.376L130.653 27.896C132.349 28.952 134.333 29.496 136.541 29.496C141.245 29.496 144.413 26.52 144.413 23.192C144.285 20.312 142.397 20.12 139.677 20.088H136.349C135.165 20.088 134.525 19.992 134.525 19.352C134.525 18.872 134.877 18.392 135.549 17.88C136.189 18.04 136.829 18.136 137.469 18.136C141.117 18.136 143.869 15.512 143.869 12.152C143.869 10.36 143.069 8.856 141.693 7.864C142.013 7.128 142.525 6.744 143.197 6.744C143.965 6.744 144.733 7.288 145.245 8.312L145.885 3.608ZM139.837 13.208C139.837 15.48 139.197 16.76 137.917 16.76C137.053 16.76 136.445 16.248 136.061 15.224C135.709 14.2 135.517 12.984 135.517 11.544C135.517 9.208 136.221 7.992 137.373 7.992C138.205 7.992 138.813 8.504 139.229 9.56C139.645 10.616 139.837 11.832 139.837 13.208ZM158.563 23C157.923 21.176 157.699 19.736 157.699 17.656V11.128C157.699 8.184 156.419 6.616 154.211 6.616C152.387 6.616 150.755 7.608 149.731 9.56C149.699 8.632 149.379 7.352 149.027 6.552C148.003 7.064 146.659 7.672 145.027 8.376C145.667 9.688 145.763 10.776 145.763 12.92V18.328C145.763 20.376 145.667 21.432 145.027 23H150.467C149.827 21.464 149.731 20.408 149.731 18.328V10.488C150.435 9.656 151.203 9.24 152.003 9.24C153.187 9.24 153.731 9.944 153.731 11.736V17.752C153.731 20.024 153.859 21.784 154.147 23H158.563ZM167.541 23.48C169.045 23.48 170.293 23.064 171.349 22.2C172.405 21.336 173.045 20.216 173.205 18.872C172.149 19.544 171.189 19.928 169.909 19.928C166.165 19.928 163.381 16.568 163.381 10.456C163.381 6.2 164.341 3.896 166.805 3.896C168.885 3.896 170.517 5.368 172.181 8.344L173.013 2.52C172.149 2.136 170.709 1.816 169.173 1.816C163.317 1.816 159.509 6.52 159.509 12.824C159.413 19.576 163.317 23.544 167.541 23.48ZM173.667 15.032C173.667 20.024 176.419 23.384 180.259 23.384C184.355 23.384 187.139 20.056 187.139 14.936C187.139 9.912 184.355 6.552 180.547 6.552C176.451 6.552 173.667 9.88 173.667 15.032ZM182.883 16.28C182.883 20.056 182.147 21.944 180.707 21.944C179.811 21.944 179.107 21.144 178.627 19.544C178.147 17.912 177.923 15.96 177.923 13.688C177.923 9.88 178.659 7.992 180.099 7.992C180.995 7.992 181.667 8.792 182.147 10.424C182.627 12.056 182.883 14.008 182.883 16.28ZM187.712 21.048C187.712 22.328 188.736 23.448 190.144 23.448C191.52 23.448 192.544 22.328 192.544 21.048C192.544 19.768 191.52 18.648 190.112 18.648C188.736 18.648 187.712 19.768 187.712 21.048Z" fill="white"/>
</symbol></svg>