<svg width="18" height="15" viewBox="0 0 18 15" fill="none" xmlns="http://www.w3.org/2000/svg">
<path d="M9.66667 14L16 7.5M16 7.5L9.66667 1M16 7.5L-2.84124e-07 7.5" stroke="white" stroke-width="1.5"/>
</svg>
