<?xml version="1.0" encoding="utf-8"?>
<!-- Generator: Adobe Illustrator 24.2.3, SVG Export Plug-In . SVG Version: 6.00 Build 0)  -->
<svg version="1.1" id="Layer_1" xmlns="http://www.w3.org/2000/svg" xmlns:xlink="http://www.w3.org/1999/xlink" x="0px" y="0px"
	 viewBox="0 0 7.9 14" style="enable-background:new 0 0 7.9 14;" xml:space="preserve">
<style type="text/css">
	.st0{fill:#020101;}
</style>
<polygon class="st0" points="7.9,1 6.8,0 0.5,6.5 0,7 6.8,14 7.9,13 2.1,7 "/>
</svg>
